<?xml version="1.0" encoding="utf-8"?>
<!-- Generator: Adobe Illustrator 22.1.0, SVG Export Plug-In . SVG Version: 6.00 Build 0)  -->
<svg version="1.1" id="Layer_1" xmlns="http://www.w3.org/2000/svg" xmlns:xlink="http://www.w3.org/1999/xlink" x="0px" y="0px"
	 width="35px" height="18px" viewBox="0 0 35 18" style="enable-background:new 0 0 35 18;" xml:space="preserve">
<style type="text/css">
	.st0{fill:#FFFFFF;}
</style>
<polygon class="st0" points="17.5,10.3 7.2,0.5 0.6,0.6 17.4,17.5 17.6,17.5 34.4,0.6 27.8,0.5 "/>
</svg>
